examples • otargen
…
Pharmacogenomics

Example: Pharmacogenomics Insights

Objective: Investigate how genetic variants
influence drug response using pharmacogenomics data.
Function: pharmacogenomicsQuery

# Retrieve pharmacogenomics data for atorvastatin
result <- pharmacogenomicsChemblQuery(chemblId = "CHEMBL1016")
print(result)
#> # A tibble: 24 × 17
#>    variantRsId genotypeId       haplotypeId haplotypeFromSourceId isDirectTarget
#>    <chr>       <chr>            <lgl>       <lgl>                 <lgl>         
#>  1 rs3758785   11_94398973_A_A… NA          NA                    FALSE         
#>  2 rs1275988   2_26691496_C_T,T NA          NA                    FALSE         
#>  3 rs3184504   12_111446804_T_… NA          NA                    FALSE         
#>  4 rs6722745   2_108258788_T_C… NA          NA                    FALSE         
#>  5 rs3184504   12_111446804_T_… NA          NA                    FALSE         
#>  6 rs5186      3_148742201_A_A… NA          NA                    TRUE          
#>  7 rs6722745   2_108258788_T_C… NA          NA                    FALSE         
#>  8 rs740406    19_2232222_A_A,G NA          NA                    FALSE         
#>  9 rs740406    19_2232222_A_A,G NA          NA                    FALSE         
#> 10 rs740406    19_2232222_A_G,G NA          NA                    FALSE         
#> # ℹ 14 more rows
#> # ℹ 12 more variables: phenotypeFromSourceId <lgl>,
#> #   genotypeAnnotationText <chr>, phenotypeText <chr>, pgxCategory <chr>,
#> #   evidenceLevel <chr>, studyId <chr>, literature <list>,
#> #   variantFunctionalConsequence.id <chr>,
#> #   variantFunctionalConsequence.label <chr>, target.id <chr>,
#> #   target.approvedSymbol <chr>, drugId <chr>
…
